DE-SCRIBER.cpp

CONTROLLER.h
-- StartUp(); ---a
--ServiceCheck() ---b
--ShutDown() ---z
--BackUpCheck() ---a`
--SpellCheck() ---b`
--AutoSave() ---b`
--KeyCheck() ---b`

CURSOR.h
--Chunk, Line, Word {Reference}

WORDPAD.h
--Chunk ---{Paragraph} // DLList.h
  --Line
    --Word

DLList.h
--Node{
    char*    ;word
    sperr    ;bool //spell error
    size     ;font size
    colour  ;font colour
    }